…
ℹ Use `spec()` to retrieve the full column specification for this data.
ℹ Specify the column types or set `show_col_types = FALSE` to quiet this message.
[1] "Selected store: 6"
[1] "Selected item: 47"
> train <- data$train
> test <- data$test
> 
> ## Set up preprocessing
> prepped_recipe <- setup_recipe(train)
> 
> ## Bake recipe
> bake(prepped_recipe, new_data=train)
# A tibble: 1,826 × 12
   date       store  item sales date_dow date_month date_year date_doy
   <date>     <dbl> <dbl> <dbl> <fct>    <fct>          <int>    <dbl>
 1 2013-01-01     6    47     5 Tue      Jan             2013  0      
 2 2013-01-02     6    47    10 Wed      Jan             2013  0.00861
 3 2013-01-03     6    47    10 Thu      Jan             2013  0.0172 
 4 2013-01-04     6    47    11 Fri      Jan             2013  0.0258 
 5 2013-01-05     6    47     9 Sat      Jan             2013  0.0344 
 6 2013-01-06     6    47    17 Sun      Jan             2013  0.0430 
 7 2013-01-07     6    47     6 Mon      Jan             2013  0.0516 
 8 2013-01-08     6    47    11 Tue      Jan             2013  0.0602 
 9 2013-01-09     6    47     9 Wed      Jan             2013  0.0689 
10 2013-01-10     6    47     9 Thu      Jan             2013  0.0775 
# ℹ 1,816 more rows
# ℹ 4 more variables: date_decimal <dbl>, sinDOY <dbl>, cosDOY <dbl>,
#   sin_scaled <dbl>
> bake(prepped_recipe, new_data=test)
# A tibble: 90 × 11
   date       store  item date_dow date_month date_year date_doy date_decimal
   <date>     <dbl> <dbl> <fct>    <fct>          <int>    <dbl>        <dbl>
 1 2018-01-01     6    47 Mon      Jan             2018  0              2018 
 2 2018-01-02     6    47 Tue      Jan             2018  0.00861        2018.
 3 2018-01-03     6    47 Wed      Jan             2018  0.0172         2018.
 4 2018-01-04     6    47 Thu      Jan             2018  0.0258         2018.
 5 2018-01-05     6    47 Fri      Jan             2018  0.0344         2018.
 6 2018-01-06     6    47 Sat      Jan             2018  0.0430         2018.
 7 2018-01-07     6    47 Sun      Jan             2018  0.0516         2018.
 8 2018-01-08     6    47 Mon      Jan             2018  0.0602         2018.
 9 2018-01-09     6    47 Tue      Jan             2018  0.0689         2018.
10 2018-01-10     6    47 Wed      Jan             2018  0.0775         2018.
# ℹ 80 more rows
# ℹ 3 more variables: sinDOY <dbl>, cosDOY <dbl>, sin_scaled <dbl>
…
